<###################################>
#  CONTRIBUTORS FILE FOR TheNewGuy  #
#  THANKS TO ALL OF THOSE ADDED IN  #
#            THIS FILE!!            #
<###################################>
1. Robert Trainor(BitBucket: ExcuseMyLuck)
